Introduction to speed2
…
ret = speed2run(testset)
ret
#> $df_stattest
#> # A tibble: 16 x 6
#>   speed2   p_ztest ztest_reg p_chi2test mean_rank chi2TestStatistic
#>   <chr>      <dbl> <chr>          <dbl>     <dbl>             <dbl>
#> 1 TLR    1.39e-142 UP                 0     0.849             0.843
#> 2 IL-1   4.11e-129 UP                 0     0.838             0.818
#> 3 TNFa   1.16e-102 UP                 0     0.763             0.779
#> 4 VEGF   8.06e- 42 UP                 0     0.534             0.562
#> # … with 12 more rows
#> 
#> $df_rankcoords
#> # A tibble: 3,192 x 2
#>   speed2     rank
#>   <chr>     <dbl>
#> 1 Estrogen -0.900
#> 2 Estrogen -0.997
#> 3 Estrogen  0.866
#> 4 Estrogen -0.422
#> # … with 3,188 more rows
…
